^D:\CODE\C++\CONSOLE-I-O\CONSOLEI.O\CONSOLEI.O\MAIN.CPP
D:\CODE\C++\CONSOLE-I-O\CONSOLEI.O\CONSOLEI.O\DEBUG\VC142.PDB
D:\CODE\C++\CONSOLE-I-O\CONSOLEI.O\CONSOLEI.O\DEBUG\VC142.IDB
D:\CODE\C++\CONSOLE-I-O\CONSOLEI.O\CONSOLEI.O\DEBUG\MAIN.OBJ
