^D:\CODE\C++\CONSOLE-I-O\CONSOLEI.O\CONSOLEI.O\DEBUG\MAIN.OBJ
D:\CODE\C++\CONSOLE-I-O\CONSOLEI.O\DEBUG\CONSOLEI.O.EXE
D:\CODE\C++\CONSOLE-I-O\CONSOLEI.O\CONSOLEI.O\DEBUG\CONSOLEI.O.ILK
D:\CODE\C++\CONSOLE-I-O\CONSOLEI.O\DEBUG\CONSOLEI.O.PDB
